  -5.9268529e-05   7.9120276e-04  -1.0918483e-03  -1.9995717e+01   7.9870843e-03   1.0000000e+00             Inf
  -1.5218546e+00  -1.5208845e+00  -1.5203012e+00  -1.3007600e+01  -1.0748384e+01   1.0000000e+00             Inf
  -5.1652626e-01   9.0704602e-04   4.6733105e-03  -1.9008998e+01   4.5711136e-03   1.0000000e+00   1.4295164e-01
  -7.6316164e-01   9.2277457e-04  -1.1626216e+00  -1.6509756e+01  -3.5799739e+00   1.0000000e+00   1.3217005e-01
   1.8076757e-05   1.1361153e-03  -1.5225525e+00  -1.7372570e+01  -3.5782244e+00   1.0000000e+00   1.3008216e-01
   2.4103819e-03  -2.0761383e-03  -1.2684168e+00  -1.7753011e+01  -3.1251680e+00   1.0000000e+00   4.1830241e-02
  -1.0424481e+00   1.1712954e-03  -1.1065289e+00  -1.6132808e+01  -4.6725383e+00   1.0000000e+00   3.6013202e-02
  -1.2392905e+00  -3.8928412e-02  -1.2544448e+00  -1.5583901e+01  -6.0586421e+00   1.0000000e+00   3.4055006e-02
  -1.2201599e+00   7.4601942e-04  -1.2138690e+00  -1.5679114e+01  -5.9112533e+00   1.0000000e+00   3.0537053e-02
  -7.8197536e-04  -1.7215326e-05  -1.3234011e+00  -1.7672949e+01  -3.3023664e+00   1.0000000e+00   2.8455504e-02
  -1.4074291e+00  -1.1541595e+00  -1.3326131e+00  -1.3977379e+01  -9.5205428e+00   1.0000000e+00   2.8056667e-02
  -1.0405607e+00   1.0553689e-03  -1.0783111e+00  -1.6181233e+01  -4.5324032e+00   1.0000000e+00   2.6460292e-02
  -1.2654380e+00  -8.2147843e-01  -1.2694168e+00  -1.4785685e+01  -7.3820377e+00   1.0000000e+00   2.5305475e-02
  -1.3879400e+00  -1.2823929e+00  -1.3869009e+00  -1.3706520e+01  -1.0092014e+01   1.0000000e+00   2.4709551e-02
  -1.2861902e+00  -8.6832652e-01  -1.2558570e+00  -1.4700295e+01  -7.6254360e+00   1.0000000e+00   2.4305881e-02
  -1.0236200e-03   1.1910777e-04  -1.2421504e+00  -1.7798183e+01  -3.0451898e+00   1.0000000e+00   2.4271759e-02
  -1.3145158e+00  -8.7506226e-01  -1.2559437e+00  -1.4654641e+01  -7.7421725e+00   1.0000000e+00   2.3106337e-02
  -1.3702668e+00  -1.2748789e+00  -1.3693685e+00  -1.3755996e+01  -9.9972073e+00   1.0000000e+00   2.2962378e-02
  -1.4237802e+00  -6.3023043e-04  -1.4412951e+00  -1.5017651e+01  -7.0462937e+00   1.0000000e+00   2.2799024e-02
  -9.9426463e-01   1.1364837e-03  -1.0613131e+00  -1.6284225e+01  -4.2242574e+00   1.0000000e+00   2.2788363e-02
  -1.3863268e+00  -1.1970735e+00  -1.3206044e+00  -1.3934113e+01  -9.6290211e+00   1.0000000e+00   2.2707712e-02
  -3.4624939e-03   1.7199225e-04  -1.3751045e+00  -1.7588631e+01  -3.4171703e+00   1.0000000e+00   2.2202213e-02
  -8.9727280e-01  -6.1612469e-03  -1.0586190e+00  -1.6449077e+01  -3.7186620e+00   1.0000000e+00   2.1934058e-02
  -1.4616154e+00  -7.2027344e-04  -1.4808987e+00  -1.4901810e+01  -7.1240013e+00   1.0000000e+00   2.1687422e-02
  -7.5555424e-01   8.7879850e-04  -1.1845556e+00  -1.6488137e+01  -3.6385415e+00   1.0000000e+00   2.1576830e-02
  -7.5014426e-01   2.2709938e-04  -1.3707909e-03  -1.8604053e+01  -7.8340972e-01   1.0000000e+00   2.1515674e-02
  -1.0215623e+00   6.4466726e-03  -1.0558535e+00  -1.6248370e+01  -4.3192569e+00   1.0000000e+00   2.1390715e-02
  -1.0836799e+00   1.0264848e-03  -1.0886048e+00  -1.6094922e+01  -4.7869217e+00   1.0000000e+00   2.1301734e-02
   1.3535433e-04  -2.3199736e-03  -9.5243455e-01  -1.8260914e+01  -1.7346436e+00   1.0000000e+00   2.1068876e-02
  -1.4738211e+00  -1.3781067e+00  -1.4365613e+00  -1.3395122e+01  -1.0531156e+01   1.0000000e+00   2.0546619e-02
   1.5873451e-04  -1.1703386e-03  -1.0842041e+00  -1.8048218e+01  -2.3809903e+00   1.0000000e+00   2.0382880e-02
  -1.3565164e+00  -2.4125784e-04  -1.3895004e+00  -1.5197577e+01  -6.8443344e+00   1.0000000e+00   2.0318463e-02
  -1.8066424e-03   1.0583918e-04  -1.4042386e+00  -1.7547814e+01  -3.4761716e+00   1.0000000e+00   1.9540780e-02
  -1.2129344e+00  -8.3420310e-01  -1.2518155e+00  -1.4851427e+01  -7.1930611e+00   1.0000000e+00   1.9395594e-02
  -9.7266247e-01   3.7439426e-03  -1.0616863e+00  -1.6319091e+01  -4.1119390e+00   1.0000000e+00   1.9387183e-02
  -1.4931245e+00  -1.3667644e+00  -1.4904438e+00  -1.3344256e+01  -1.0563777e+01   1.0000000e+00   1.9317834e-02
  -7.9194080e-01  -1.5424325e-03  -3.9227371e-04  -1.8531999e+01  -9.6529978e-01   1.0000000e+00   1.9219525e-02
  -1.3596424e+00  -1.1497367e-03  -1.3281811e+00  -1.5286266e+01  -6.7096693e+00   1.0000000e+00   1.8929955e-02
  -1.0211009e+00   6.5695786e-03  -9.9499194e-01  -1.6348271e+01  -4.0193724e+00   1.0000000e+00   1.8725407e-02
  -1.3750544e+00  -6.4357113e-04  -1.4046482e+00  -1.5146453e+01  -6.9099000e+00   1.0000000e+00   1.8488731e-02
  -1.0810283e+00  -2.4005741e-02  -1.1055853e+00  -1.6071077e+01  -4.8066489e+00   1.0000000e+00   1.8484805e-02
   9.0064087e-05  -1.8101829e-03  -1.1775655e+00  -1.7898027e+01  -2.7936222e+00   1.0000000e+00   1.8399603e-02
  -1.2981086e+00  -8.6221445e-01  -1.2112049e+00  -1.4750047e+01  -7.4694074e+00   1.0000000e+00   1.8397476e-02
  -1.1739095e+00   3.3558682e-04  -1.2396688e+00  -1.5711549e+01  -5.8248726e+00   1.0000000e+00   1.8282657e-02
  -1.4895638e+00  -1.4731034e+00  -1.4890448e+00  -1.3154689e+01  -1.0715771e+01   1.0000000e+00   1.8263883e-02
  -1.3654072e+00  -1.2189087e+00  -1.3847597e+00  -1.3849109e+01  -9.8209291e+00   1.0000000e+00   1.8254744e-02
  -1.2367141e+00  -1.2935727e-03  -1.3185349e+00  -1.5490713e+01  -6.3180552e+00   1.0000000e+00   1.8253692e-02
  -1.1452918e+00   4.2896953e-03  -8.2672620e-01  -1.6428800e+01  -3.7831390e+00   1.0000000e+00   1.8059975e-02
  -1.1868879e+00  -9.2311112e-04  -1.2107264e+00  -1.5736355e+01  -5.7681818e+00   1.0000000e+00   1.7935698e-02
  -1.4504360e+00  -1.3752084e+00  -1.3822826e+00  -1.3475666e+01  -1.0418216e+01   1.0000000e+00   1.7761671e-02
   8.5065697e-04  -9.7917320e-04  -1.0492486e+00  -1.8104466e+01  -2.2125046e+00   1.0000000e+00   1.7759339e-02
  -7.2771487e-01   1.7064704e-04   4.8728925e-03  -1.8635780e+01  -6.8091527e-01   1.0000000e+00   1.7742528e-02
   9.0466719e-05  -1.7989843e-03  -1.1949845e+00  -1.7870569e+01  -2.8643982e+00   1.0000000e+00   1.7731428e-02
  -1.1997759e+00   2.3756799e-04  -1.1820823e+00  -1.5761149e+01  -5.7082962e+00   1.0000000e+00   1.7606492e-02
  -1.2242062e+00  -1.0070913e+00  -1.2677351e+00  -1.4516840e+01  -8.1365692e+00   1.0000000e+00   1.7593395e-02
  -1.0163935e+00   6.4907533e-03  -9.6469790e-01  -1.6405756e+01  -3.8462408e+00   1.0000000e+00   1.7563649e-02
   1.1372768e-03  -7.7694763e-04  -1.0985076e+00  -1.8024829e+01  -2.4454146e+00   1.0000000e+00   1.7535778e-02
  -1.1227024e+00   2.4211742e-04  -1.1727720e+00  -1.5898064e+01  -5.3429360e+00   1.0000000e+00   1.7368223e-02
  -1.1349604e+00  -2.5730772e-03  -1.0942653e+00  -1.6003659e+01  -5.0431078e+00   1.0000000e+00   1.7205270e-02
  -1.4450445e+00  -1.3462377e+00  -1.3918874e+00  -1.3525828e+01  -1.0365821e+01   1.0000000e+00   1.7181978e-02
  -1.4799329e+00  -1.4516835e+00  -1.4638557e+00  -1.3227066e+01  -1.0675467e+01   1.0000000e+00   1.6999969e-02
  -2.1597911e-03  -3.5516145e-03  -1.1653531e+00  -1.7912658e+01  -2.7312693e+00   1.0000000e+00   1.6946663e-02
  -1.1654187e+00   2.5014771e-04  -1.1913497e+00  -1.5800772e+01  -5.6053625e+00   1.0000000e+00   1.6887529e-02
  -6.3791741e-01  -1.8699700e-03   8.4094446e-04  -1.8798095e+01  -3.4804403e-01   1.0000000e+00   1.6745116e-02
  -1.0374678e+00   7.7653183e-03  -1.0510905e+00  -1.6230166e+01  -4.3711339e+00   1.0000000e+00   1.6678170e-02
  -1.3514463e+00  -3.2377455e-04  -1.3526223e+00  -1.5261379e+01  -6.7545158e+00   1.0000000e+00   1.6275219e-02
  -1.3712550e+00  -1.2886390e+00  -1.4231925e+00  -1.3675072e+01  -1.0138431e+01   1.0000000e+00   1.6018362e-02
  -6.9848263e-01   1.2210926e-04  -6.6961979e-03  -1.8682835e+01  -5.6017003e-01   1.0000000e+00   1.5879843e-02
  -1.2997972e+00   3.6181632e-02  -1.2911122e+00  -1.5433503e+01  -6.3810976e+00   1.0000000e+00   1.5776859e-02
  -1.3841304e+00  -6.6721305e-04  -1.4310013e+00  -1.5092985e+01  -6.9671097e+00   1.0000000e+00   1.5776124e-02
  -7.6175600e-01  -2.6649391e-03   4.5398281e-04  -1.8581453e+01  -8.2872377e-01   1.0000000e+00   1.5768399e-02
  -8.2647503e-01  -1.7101742e-03  -8.0350098e-03  -1.8460017e+01  -1.1039852e+00   1.0000000e+00   1.5764093e-02
  -1.4445003e+00  -6.5814432e-04  -1.4693368e+00  -1.4944624e+01  -7.0993239e+00   1.0000000e+00   1.5743959e-02
  -8.3158603e-04  -3.6727180e-03  -1.1504829e+00  -1.7937031e+01  -2.6713741e+00   1.0000000e+00   1.5648355e-02
  -1.3045439e+00  -1.1655936e+00  -1.3356810e+00  -1.4062596e+01  -9.3415030e+00   1.0000000e+00   1.5623314e-02
  -5.1745011e-04   2.0284429e-04  -1.2072503e+00  -1.7853769e+01  -2.9162245e+00   1.0000000e+00   1.5556491e-02
   1.2299025e-04  -2.2690159e-03  -9.0061003e-01  -1.8347135e+01  -1.4786648e+00   1.0000000e+00   1.5500400e-02
  -1.0441201e+00   6.4960667e-03  -1.0576514e+00  -1.6208763e+01  -4.4376897e+00   1.0000000e+00   1.5492577e-02
  -9.8609784e-01   5.8886604e-03  -1.0583022e+00  -1.6302443e+01  -4.1573679e+00   1.0000000e+00   1.5431337e-02
   8.6855578e-04  -1.2410162e-03  -1.0387959e+00  -1.8120996e+01  -2.1610183e+00   1.0000000e+00   1.5399722e-02
  -5.9345617e-01   8.5572607e-04  -1.5431395e-03  -1.8877290e+01  -2.0657827e-01   1.0000000e+00   1.5369799e-02
  -1.1667325e+00   2.4051343e-04  -1.1732836e+00  -1.5827214e+01  -5.5370058e+00   1.0000000e+00   1.5265203e-02
  -1.1776333e+00   2.4387244e-04  -1.1900827e+00  -1.5783442e+01  -5.6512793e+00   1.0000000e+00   1.5239523e-02
  -1.8887049e-03  -1.2042509e-03  -9.7046308e-01  -1.8231336e+01  -1.8215431e+00   1.0000000e+00   1.5073652e-02
  -8.5495284e-01  -1.7109875e-03   7.9130394e-03  -1.8412114e+01  -1.2387908e+00   1.0000000e+00   1.4973446e-02
  -4.7465006e-04   1.3212184e-03  -8.1217051e-01  -1.8497912e+01  -1.0577179e+00   1.0000000e+00   1.4967725e-02
  -1.3647481e+00  -1.1471580e+00  -1.3418252e+00  -1.4026030e+01  -9.4320263e+00   1.0000000e+00   1.4962456e-02
  -5.7742659e-01   1.3421838e-03  -9.9447236e-04  -1.8905993e+01  -1.5981003e-01   1.0000000e+00   1.4911203e-02
  -6.0630195e-01   8.5835119e-04  -1.5477962e-03  -1.8854493e+01  -2.4586131e-01   1.0000000e+00   1.4853996e-02
  -8.8065377e-01  -1.6962754e-03   1.3766738e-03  -1.8380712e+01  -1.3784126e+00   1.0000000e+00   1.4800757e-02
  -1.1044573e+00   2.3913668e-04  -1.1749898e+00  -1.5923761e+01  -5.2691924e+00   1.0000000e+00   1.4598729e-02
  -5.5036591e-01   8.4866627e-04  -2.4197865e-03  -1.8952557e+01  -8.3525850e-02   1.0000000e+00   1.4542915e-02
  -1.2467340e+00  -9.7103021e-01  -1.2617760e+00  -1.4563088e+01  -8.0199991e+00   1.0000000e+00   1.4520847e-02
  -1.1851430e+00   5.7859446e-03  -1.0775016e+00  -1.5951020e+01  -5.1703216e+00   1.0000000e+00   1.4481891e-02
  -9.4020233e-01  -1.5760915e-03   8.8628349e-04  -1.8282194e+01  -1.6732007e+00   1.0000000e+00   1.4481681e-02
  -1.2887728e+00  -8.8469345e-04  -1.3106400e+00  -1.5421973e+01  -6.4723195e+00   1.0000000e+00   1.4438303e-02
  -6.5623162e-01  -1.9175249e-03  -4.1874285e-03  -1.8760805e+01  -4.0252774e-01   1.0000000e+00   1.4362697e-02
  -1.4097231e+00  -1.1846906e+00  -1.3794533e+00  -1.3870423e+01  -9.7597275e+00   1.0000000e+00   1.4345606e-02
  -1.4413534e+00  -1.1988394e+00  -1.3862414e+00  -1.3804476e+01  -9.8734892e+00   1.0000000e+00   1.4310438e-02
   9.4757237e-03  -1.2929346e-03  -1.0262176e+00  -1.8125379e+01  -2.0790501e+00   1.0000000e+00   1.4303681e-02
  -1.2229104e+00  -9.7064804e-01  -1.2674526e+00  -1.4584583e+01  -7.9503811e+00   1.0000000e+00   1.4164926e-02
  -8.9131142e-01  -3.3215370e-04   6.7928031e-04  -1.8365717e+01  -1.4369847e+00   1.0000000e+00   1.4125226e-02
  -1.3915205e+00  -1.3085696e+00  -1.3886408e+00  -1.3652347e+01  -1.0180929e+01   1.0000000e+00   1.4068147e-02
  -1.3523155e+00  -6.5134549e-04  -1.2239856e+00  -1.5458894e+01  -6.3594469e+00   1.0000000e+00   1.4047739e-02
  -1.3653463e+00  -1.2635458e+00  -1.3727094e+00  -1.3778800e+01  -9.9562798e+00   1.0000000e+00   1.4021728e-02
  -1.3989439e+00  -1.4236078e+00  -1.3970240e+00  -1.3419146e+01  -1.0458044e+01   1.0000000e+00   1.3992752e-02
  -1.1832978e+00  -1.3648182e-02  -1.0680582e+00  -1.5968954e+01  -5.1020355e+00   1.0000000e+00   1.3904469e-02
  -1.2751323e+00  -8.3134999e-01  -1.2231813e+00  -1.4814782e+01  -7.2968545e+00   1.0000000e+00   1.3895488e-02
   1.4911977e-05   1.0423585e-03  -1.4944478e+00  -1.7414328e+01  -3.5731125e+00   1.0000000e+00   1.3825808e-02
  -5.6437947e-01   8.7101606e-04   1.9906520e-05  -1.8930872e+01  -1.2866237e-01   1.0000000e+00   1.3755307e-02
  -5.4721159e-03   1.1245423e-03  -1.4276166e+00  -1.7505041e+01  -3.4986926e+00   1.0000000e+00   1.3700481e-02
  -1.3919396e+00  -1.3330533e+00  -1.3860623e+00  -1.3608495e+01  -1.0243564e+01   1.0000000e+00   1.3611218e-02
   1.2174660e-04  -2.3163722e-03  -1.0092584e+00  -1.8167519e+01  -2.0162408e+00   1.0000000e+00   1.3564207e-02
  -1.1278523e+00   1.3807714e-02  -1.0767984e+00  -1.6042844e+01  -4.9055913e+00   1.0000000e+00   1.3490115e-02
   8.2327479e-04   1.2677653e-03  -8.0443908e-01  -1.8510851e+01  -1.0212335e+00   1.0000000e+00   1.3469822e-02
  -9.5819132e-01   9.7012805e-03  -1.0507259e+00  -1.6360567e+01  -3.9743628e+00   1.0000000e+00   1.3444334e-02
  -8.4359039e-01  -1.7082249e-03   4.6836354e-03  -1.8437501e+01  -1.1918712e+00   1.0000000e+00   1.3347651e-02
  -1.2214831e+00  -1.0434893e-03  -1.3158451e+00  -1.5518671e+01  -6.2551153e+00   1.0000000e+00   1.3273550e-02
   1.3853346e-03  -2.1665176e-03  -9.1392470e-01  -1.8324327e+01  -1.5400030e+00   1.0000000e+00   1.3237233e-02
  -1.3986171e-03  -3.3729352e-03  -1.0680973e+00  -1.8069248e+01  -2.2945402e+00   1.0000000e+00   1.3105594e-02
  -1.1042522e+00  -1.5691219e-02  -1.1737632e+00  -1.5925686e+01  -5.2284225e+00   1.0000000e+00   1.3092527e-02
  -1.1236304e+00   1.3297798e-02  -1.2078772e+00  -1.5841005e+01  -5.4582245e+00   1.0000000e+00   1.3074065e-02
  -9.3215411e-01  -1.5704920e-03  -2.5802800e-03  -1.8293118e+01  -1.6284425e+00   1.0000000e+00   1.3048510e-02
  -1.4107798e+00  -1.1903219e+00  -1.3340309e+00  -1.3906777e+01  -9.6802938e+00   1.0000000e+00   1.3044781e-02
  -1.4030527e+00  -6.7712280e-04  -1.3892706e+00  -1.5127297e+01  -6.9350279e+00   1.0000000e+00   1.2969957e-02
  -1.2923690e+00  -9.9138529e-01  -1.2661699e+00  -1.4469468e+01  -8.2859676e+00   1.0000000e+00   1.2959581e-02
  -1.3474688e+00  -1.1618166e+00  -1.3419804e+00  -1.4017565e+01  -9.4556855e+00   1.0000000e+00   1.2904535e-02
  -1.0724673e+00   7.9553227e-03  -1.0390416e+00  -1.6193031e+01  -4.4806187e+00   1.0000000e+00   1.2744903e-02
  -6.8759551e-01   1.3479493e-04   2.8197137e-03  -1.8709533e+01  -5.2730312e-01   1.0000000e+00   1.2690615e-02
  -1.2081743e+00   1.1600711e-02  -1.2243883e+00  -1.5681258e+01  -5.8800308e+00   1.0000000e+00   1.2672071e-02
   7.3617878e-04  -1.1988763e-03  -1.0648920e+00  -1.8078922e+01  -2.2872813e+00   1.0000000e+00   1.2666416e-02
  -1.3254009e+00  -2.7343458e-04  -1.3365691e+00  -1.5325773e+01  -6.6500146e+00   1.0000000e+00   1.2520211e-02
  -1.2429937e+00  -9.7765303e-01  -1.2681382e+00  -1.4548233e+01  -8.0608824e+00   1.0000000e+00   1.2482686e-02
  -1.3451381e+00  -1.0202736e+00  -1.2695621e+00  -1.4354271e+01  -8.5846143e+00   1.0000000e+00   1.2413523e-02
  -1.3679235e+00  -1.3175041e+00  -1.4218868e+00  -1.3625913e+01  -1.0214086e+01   1.0000000e+00   1.2098232e-02
  -5.7112441e-03   1.1277076e-03  -1.4674565e+00  -1.7444920e+01  -3.5408730e+00   1.0000000e+00   1.2085602e-02
  -1.2095301e+00  -8.4026859e-01  -1.2588265e+00  -1.4836857e+01  -7.2326486e+00   1.0000000e+00   1.2049450e-02
  -1.1916596e+00  -1.6799538e-03  -1.1208032e+00  -1.5871275e+01  -5.4069463e+00   1.0000000e+00   1.2048265e-02
   3.8011222e-04   3.9336764e-05  -1.3494493e+00  -1.7633872e+01  -3.3698189e+00   1.0000000e+00   1.2007837e-02
  -5.3543762e-01   9.0022221e-04   4.6780753e-03  -1.8974946e+01  -4.0073922e-02   1.0000000e+00   1.1962843e-02
   9.4131584e-04  -1.2506693e-03  -1.0179907e+00  -1.8154770e+01  -2.0591483e+00   1.0000000e+00   1.1869409e-02
  -1.4386976e+00  -1.4249751e+00  -1.4686049e+00  -1.3311253e+01  -1.0609850e+01   1.0000000e+00   1.1807007e-02
  -1.3228936e+00  -1.1428701e+00  -1.2791794e+00  -1.4145294e+01  -9.1327453e+00   1.0000000e+00   1.1710402e-02
  -9.7192720e-04   1.3765607e-04  -1.2237633e+00  -1.7827018e+01  -2.9780064e+00   1.0000000e+00   1.1609837e-02
  -1.3114765e+00  -1.0165762e+00  -1.3304223e+00  -1.4330135e+01  -8.6579932e+00   1.0000000e+00   1.1597771e-02
  -1.2689286e+00  -1.1790997e+00  -1.3102326e+00  -1.4101092e+01  -9.2182445e+00   1.0000000e+00   1.1555708e-02
  -1.3350725e+00  -8.9468193e-01  -1.2318277e+00  -1.4626133e+01  -7.8070867e+00   1.0000000e+00   1.1490446e-02
  -7.7565939e-01  -2.9434119e-03   2.0734672e-03  -1.8555815e+01  -8.8371045e-01   1.0000000e+00   1.1452486e-02
   1.1464689e-02   1.1284215e-03  -8.3470763e-01  -1.8439476e+01  -1.1373357e+00   1.0000000e+00   1.1392519e-02
   1.0003192e-03  -6.3907200e-04  -1.1235789e+00  -1.7985058e+01  -2.5606698e+00   1.0000000e+00   1.1372306e-02
  -1.3467888e+00  -1.1135237e+00  -1.2850280e+00  -1.4167585e+01  -9.0814053e+00   1.0000000e+00   1.1229855e-02
  -1.2364663e+00  -1.0173172e+00  -1.2984400e+00  -1.4449717e+01  -8.3287811e+00   1.0000000e+00   1.1229438e-02
  -6.2047176e-01   6.9929067e-04  -2.4289632e-04  -1.8831484e+01  -2.9584654e-01   1.0000000e+00   1.1226518e-02
  -1.2987289e+00  -1.0598223e+00  -1.2962970e+00  -1.4305789e+01  -8.7349341e+00   1.0000000e+00   1.1146354e-02
  -1.3248299e+00   1.7224352e-02  -1.3099800e+00  -1.5367115e+01  -6.5393452e+00   1.0000000e+00   1.1053425e-02
  -1.3321004e+00  -1.1012123e+00  -1.2695122e+00  -1.4222884e+01  -8.9383492e+00   1.0000000e+00   1.1026515e-02
  -1.5130270e+00  -1.4733414e+00  -1.5287286e+00  -1.3095015e+01  -1.0730384e+01   1.0000000e+00   1.1020103e-02
  -1.2549783e+00  -1.0062158e+00  -1.2675088e+00  -1.4483973e+01  -8.2421113e+00   1.0000000e+00   1.0913414e-02
  -9.5408797e-01   9.3899337e-03  -1.0402098e+00  -1.6384417e+01  -3.9037449e+00   1.0000000e+00   1.0877533e-02
  -6.3075916e-04  -6.7930934e-04  -1.1400237e+00  -1.7959351e+01  -2.6348215e+00   1.0000000e+00   1.0870126e-02
  -1.4085085e+00  -5.9984416e-04  -1.4267490e+00  -1.5062499e+01  -7.0049825e+00   1.0000000e+00   1.0723163e-02
  -1.2541620e+00  -8.8818190e-01  -1.2451379e+00  -1.4718509e+01  -7.5790365e+00   1.0000000e+00   1.0660755e-02
  -1.3294407e+00  -1.1791692e-03  -1.3985592e+00  -1.5225263e+01  -6.7908333e+00   1.0000000e+00   1.0573316e-02
  -1.2318131e+00  -8.4588892e-04  -1.2967180e+00  -1.5531965e+01  -6.2387763e+00   1.0000000e+00   1.0565337e-02
  -1.3227176e+00  -1.1543001e+00  -1.2791950e+00  -1.4124078e+01  -9.1818823e+00   1.0000000e+00   1.0526428e-02
  -8.7027712e-01  -1.6705563e-03   2.1446017e-03  -1.8397065e+01  -1.3260343e+00   1.0000000e+00   1.0495484e-02
  -8.6533717e-01  -1.6039632e-03   8.4434907e-04  -1.8407182e+01  -1.3062622e+00   1.0000000e+00   1.0264312e-02
  -1.4206617e+00  -5.6576030e-04  -1.4223353e+00  -1.5050821e+01  -7.0175524e+00   1.0000000e+00   1.0258369e-02
  -1.3489330e+00  -1.0686680e+00  -1.2865254e+00  -1.4244924e+01  -8.8822437e+00   1.0000000e+00   1.0252159e-02
  -1.3276969e+00  -1.1691554e+00  -1.2785395e+00  -1.4091593e+01  -9.2561776e+00   1.0000000e+00   1.0139553e-02
  -1.2278190e+00  -9.1946927e-01  -1.2896286e+00  -1.4643060e+01  -7.7858774e+00   1.0000000e+00   1.0114520e-02
  -6.7758646e-01   6.1714754e-05  -5.3585355e-03  -1.8721929e+01  -4.8383880e-01   1.0000000e+00   1.0101761e-02
  -1.2437549e+00  -9.0525616e-03  -1.2591264e+00  -1.5571445e+01  -6.1416770e+00   1.0000000e+00   1.0022324e-02
  -9.5710734e-01   9.4507730e-03  -1.0407677e+00  -1.6378521e+01  -3.9213233e+00   1.0000000e+00   9.9782389e-03
  -1.1590287e+00   2.4096178e-04  -1.1466863e+00  -1.5881605e+01  -5.3911229e+00   1.0000000e+00   9.7845221e-03
  -1.2389488e+00  -1.0057293e+00  -1.2669601e+00  -1.4503587e+01  -8.1814036e+00   1.0000000e+00   9.7548270e-03
  -1.0987671e+00  -2.4945130e-02  -1.1148019e+00  -1.6027731e+01  -4.9299557e+00   1.0000000e+00   9.6471312e-03
  -6.2632001e-01   7.0041377e-04  -1.5058212e-04  -1.8821206e+01  -3.1538214e-01   1.0000000e+00   9.6307041e-03
  -1.3048707e+00  -1.0929169e+00  -1.3208385e+00  -1.4211979e+01  -8.9798019e+00   1.0000000e+00   9.6063469e-03
  -1.0255872e-03   1.6413251e-04  -1.2216228e+00  -1.7830257e+01  -2.9696791e+00   1.0000000e+00   9.5717223e-03
  -1.3609508e+00  -1.1587388e+00  -1.2775192e+00  -1.4076912e+01  -9.2900910e+00   1.0000000e+00   9.5289399e-03
  -1.5202719e+00  -1.4954376e+00  -1.5209940e+00  -1.3055123e+01  -1.0743338e+01   1.0000000e+00   9.5240322e-03
   1.1625622e-03  -6.9908681e-04  -1.1109772e+00  -1.8004875e+01  -2.5028966e+00   1.0000000e+00   9.5221376e-03
  -1.2418607e+00  -8.7242938e-03  -1.2558225e+00  -1.5579545e+01  -6.1243007e+00   1.0000000e+00   9.5020427e-03
   2.6974454e-03  -1.2440901e-03  -9.8304215e-01  -1.8209182e+01  -1.8816476e+00   1.0000000e+00   9.4101517e-03
   1.1618944e-04  -2.3503228e-03  -9.9806485e-01  -1.8185767e+01  -1.9609585e+00   1.0000000e+00   9.3840667e-03
  -1.2339140e+00  -9.3604019e-01  -1.2823166e+00  -1.4615767e+01  -7.8674635e+00   1.0000000e+00   9.3250384e-03
  -1.3733934e+00  -1.3367848e+00  -1.4287157e+00  -1.3577661e+01  -1.0286222e+01   1.0000000e+00   9.3212573e-03
  -1.2767882e+00  -1.0583167e+00  -1.3035974e+00  -1.4324706e+01  -8.6813317e+00   1.0000000e+00   9.3149433e-03
  -1.3469630e+00  -8.4551804e-04  -1.2968297e+00  -1.5353839e+01  -6.5925619e+00   1.0000000e+00   9.1888867e-03
  -6.7100150e-01  -1.8115004e-03  -6.7821565e-03  -1.8730115e+01  -4.5032550e-01   1.0000000e+00   9.1612583e-03
  -7.7107829e-04   2.5934608e-05  -1.3366190e+00  -1.7652709e+01  -3.3369443e+00   1.0000000e+00   9.1277422e-03
  -7.1359400e-01   1.2344408e-04   1.8541507e-03  -1.8666263e+01  -6.3150948e-01   1.0000000e+00   9.1061818e-03
  -1.4075712e+00  -1.3335116e+00  -1.4311681e+00  -1.3547810e+01  -1.0344447e+01   1.0000000e+00   9.1017127e-03
  -2.1878361e-03  -1.2195256e-03  -9.9409553e-01  -1.8191972e+01  -1.9378195e+00   1.0000000e+00   9.0908069e-03
  -1.3313350e+00  -1.5074370e-03  -1.4018630e+00  -1.5217365e+01  -6.8004970e+00   1.0000000e+00   8.9356818e-03
  -1.1805477e+00   1.4000415e-02  -1.0757814e+00  -1.5960818e+01  -5.1267264e+00   1.0000000e+00   8.9148187e-03
  -1.2507675e+00  -8.7738847e-01  -1.2560979e+00  -1.4727728e+01  -7.5529900e+00   1.0000000e+00   8.9061775e-03
  -7.2186662e-01   1.6952393e-04   4.7805783e-03  -1.8646083e+01  -6.5725877e-01   1.0000000e+00   8.8528597e-03
  -6.6301576e-01  -1.9076665e-03  -4.1633629e-03  -1.8748966e+01  -4.2691400e-01   1.0000000e+00   8.8354964e-03
