identifier;description;value;
UValue_IRTransparent;UValue of Infrared Partition (usually used to model two parts of the same room);100;
convCoeff_CeilingGND;Convective coefficient of a adiabatic surface (unused, set to 0);0;
convCoeff_CeilingInt;Convective coefficient of ceiling to zone (default, considering thermal radiation);8;
convCoeff_FloorInt;Convective coefficient of floor to zone (default, considering thermal radiation);5;
convCoeff_RoofExt;Convective coefficient of a surface to ambient air (default);25;
convCoeff_UNKNOWN;Convective coefficient of unknown surface (corresponding construction unused in building elements);0;
convCoeff_WallExt;Convective coefficient of a surface to ambient air (default);25;
convCoeff_WallInt;Convective coefficient of wall to zone (default, considering thermal radiation);7;
GValue_Window_EPConstr_1001;GValue of Window with EP Construction1001 (default value);0.761;
UValue_Window_EPConstr_1001;UValue of Window with EP Construction1001 (default value);2.5;
