identifier;description;area;volume;group;
Z0001;Block1:Zone1;739.8000001;2589.3;NaN;
Z0002;Block2:Zone1;739.8;2589.3;NaN;
Z0003;Block3:Zone1;739.8;2589.3;NaN;
Z0004;Block4:Zone1;739.8000001;2589.3;NaN;
Z0005;Block5:Zone1;739.8000001;2589.3;NaN;
Z0006;Block6:Zone1;739.8000001;2589.3;NaN;
Z0007;Block7:Zone1;739.8000001;2589.3;NaN;
Z0008;Block8:Zone1;739.8000001;2589.3;NaN;
Z0009;Block9:Zone1;739.8000001;2589.3;NaN;
Z0010;Block10:Zone1;739.8000001;2589.3;NaN;
